…
2.  The diamonds data set is reasonably big, which is a bit of a pain.
    Use dplyr functions to create a that contains 1% of the rows of
    diamonds, randomly sub-setted.

``` r
random_sampling <- sample_frac(diamonds, 0.01)
random_sampling
```

    ## # A tibble: 539 × 10
    ##    carat cut       color clarity depth table price     x     y     z
    ##    <dbl> <ord>     <ord> <ord>   <dbl> <dbl> <int> <dbl> <dbl> <dbl>
    ##  1  0.71 Premium   J     SI2      60.7    59  1609  5.75  5.71  3.48
    ##  2  0.51 Ideal     G     VVS2     61.6    56  1974  5.17  5.12  3.17
    ##  3  0.31 Ideal     F     VS2      62.2    56   583  4.36  4.39  2.72
    ##  4  0.74 Ideal     D     VS2      61.9    56  3087  5.84  5.79  3.6 
    ##  5  0.86 Ideal     E     SI2      60      56  3478  6.22  6.24  3.74
    ##  6  0.33 Ideal     E     VVS2     60      56   970  4.53  4.56  2.72
    ##  7  0.36 Ideal     E     SI1      62.4    55   810  4.58  4.55  2.85
    ##  8  0.82 Fair      F     SI2      56.7    70  2508  6.28  6.16  3.53
    ##  9  0.38 Very Good H     SI1      60.1    57   662  4.73  4.75  2.85
    ## 10  0.7  Good      F     VS1      57.8    61  2751  5.83  5.79  3.36
    ## # … with 529 more rows
…
